{
	"info": {
		"_postman_id": "cf744edf-e829-440c-8dd2-0b2d46759c69",
		"name": "<?= repoName ?>",
		"description": "<?= projectDescription ?>",
		"schema": "https://schema.getpostman.com/json/collection/v2.1.0/collection.json"
	},
	"item": [
		{
			"name": "System",
			"item": [
				{
					"name": "Swagger 2.0 Documentation",
					"request": {
						"method": "GET",
						"header": [],
						"body": {
							"mode": "raw",
							"raw": ""
						},
						"url": {
							"raw": "{{base-url}}/api-docs",
							"host": [
								"{{base-url}}"
							],
							"path": [
								"api-docs"
							]
						}
					},
					"response": []
				},
				{
					"name": "Version",
					"request": {
						"method": "GET",
						"header": [],
						"body": {
							"mode": "raw",
							"raw": ""
						},
						"url": {
							"raw": "{{base-url}}/version",
							"host": [
								"{{base-url}}"
							],
							"path": [
								"version"
							]
						}
					},
					"response": []
				}
			]
		}
	],
	"event": [
		{
			"listen": "prerequest",
			"script": {
				"id": "aec32eeb-e01d-408e-a5df-44bdb409d462",
				"type": "text/javascript",
				"exec": [
					""
				]
			}
		},
		{
			"listen": "test",
			"script": {
				"id": "f058c7c7-c26e-46d7-876c-134e20f7a40c",
				"type": "text/javascript",
				"exec": [
					""
				]
			}
		}
	]
}